*** Life<FredkinCell> 9x9 ***

Generation = 0, Population = 3.
---------
---------
---------
---------
---000---
---------
---------
---------
---------

Generation = 1, Population = 10.
---------
---------
---------
---000---
--01-10--
---000---
---------
---------
---------

Generation = 2, Population = 12.
---------
---------
---000---
---------
-012-210-
---------
---000---
---------
---------

Generation = 3, Population = 30.
---------
---000---
--01-10--
-00-0-00-
01-3-3-10
-00-0-00-
--01-10--
---000---
---------

*** Life<FredkinCell> 10x10 ***

Generation = 0, Population = 4.
----------
----------
----------
----------
----00----
----00----
----------
----------
----------
----------

Generation = 1, Population = 8.
----------
----------
----------
----00----
---0--0---
---0--0---
----00----
----------
----------
----------

Generation = 2, Population = 16.
----------
----------
----00----
----11----
--01--10--
--01--10--
----11----
----00----
----------
----------

Generation = 3, Population = 16.
----------
----00----
---0--0---
--0----0--
-0------0-
-0------0-
--0----0--
---0--0---
----00----
----------

*** Life<FredkinCell> 8x8 ***

Generation = 0, Population = 5.
0-------
-0------
000-----
--------
--------
--------
--------
--------

Generation = 1, Population = 9.
--------
01------
1110----
000-----
--------
--------
--------
--------

Generation = 2, Population = 11.
00------
---0----
2-210---
-1------
000-----
--------
--------
--------

Generation = 3, Population = 23.
1100----
-1-1----
-13210--
02000---
1110----
000-----
--------
--------

Generation = 4, Population = 14.
22--0---
-----0--
-24-210-
--------
2-------
-1------
000-----
--------

*** Life<FredkinCell> 30x3 ***

Generation = 0, Population = 14.
-00
---
000
0--
---
--0
---
---
---
---
---
---
---
0--
---
---
-0-
0--
---
--0
---
--0
---
---
---
0--
---
---
---
-0-

Generation = 2, Population = 24.
--2
1--
-02
2--
101
--0
---
--0
---
---
---
0--
---
0-0
-0-
---
---
0--
-0-
---
---
0--
---
0-0
---
0-0
---
00-
---
-0-

Generation = 4, Population = 25.
122
--0
-24
---
-01
---
000
0--
---
0-0
---
---
-0-
0--
---
--0
---
0-0
---
---
-0-
---
---
--0
---
-00
---
-2-
---
1--

*** Life<FredkinCell> 5x10 ***

Generation = 0, Population = 9.
0---------
-0--------
----------
----000---
----0--000

Generation = 1, Population = 13.
----------
--0-------
-0--000---
---0--1-00
---01--1-1

Generation = 2, Population = 22.
--0-------
---0000---
0---1--000
-0010-201-
--0-20--02

Generation = 3, Population = 27.
-0--000---
0--11-1-00
--00--0-11
-11-103120
--10-1---3

Generation = 4, Population = 23.
--0----000
-----0----
0---1--022
022-214-31
---122-1-4

Generation = 5, Population = 29.
-0-0-001-1
0-0---1---
1-0020-13-
--31325--2
00-23-0-05

*** Life<FredkinCell> 10x10 ***

Generation = 0, Population = 9.
000-------
----------
----------
----------
----------
-----0----
----000---
----------
--------0-
---------0

Generation = 1, Population = 18.
1-10------
000-------
----------
----------
-----0----
-----1----
---01110--
----000-0-
-------0--
----------

Generation = 2, Population = 23.
20-10-----
----------
000-------
-----0----
----010---
---0---0--
--012-21--
-----1---0
----00----
-------0--

Generation = 3, Population = 48.
31-210----
--000-----
1-10-0----
000--1----
----121---
---101010-
-012313-00
--0002-00-
---01-00-0
----000-0-

Generation = 4, Population = 26.
421-210---
-----0----
202-010---
----------
000-----0-
-0--------
012-----11
---------0
----2-----
-------0--

Generation = 5, Population = 45.
5-2-3210--
----0-0---
3-3-1210--
----010-0-
1110---0-0
0-0------0
1232---12-
000-0----1
---0-0-0-0
----0-0-0-

Generation = 6, Population = 33.
------210-
---0---0--
----23-1--
-0---2----
--21-2--01
---1-----1
23-3--3231
-1-------2
00----0-01
-----0-0--

Generation = 7, Population = 50.
---2-23210
--0--0----
-0--3--20-
0--0--0000
--3--3101-
00--01010-
3--4314--2
0-00---00-
1-0----01-
00--0-0--0

Generation = 8, Population = 17.
---------1
-----1---0
----------
---------1
--------2-
-1-----2--
----42-23-
-----2----
-01-2-----
-1-0------

Generation = 9, Population = 34.
-----2--12
----0-0-01
-----3----
----------
-1--------
0-0-01030-
-3-45---42
-10-03000-
1-20------
020-------

*** Life<FredkinCell> 4x4 ***

Generation = 0, Population = 5.
0---
-0--
--00
---0

Generation = 2, Population = 3.
---0
----
-0-0
----

*** Life<FredkinCell> 77x24 ***

Generation = 0, Population = 11.
0-----------------------
------------------------
---0--------------------
------------------------
------------------------
------------------------
------------------------
------------------------
------------------------
------------------------
------------------------
------------------------
------------------------
------------------------
------------------------
------------------------
------------------------
---------0--------------
------------------------
------------------------
------------------------
------------------------
------------------------
------------------------
------------------------
------------------------
------------------------
------------------------
------------------------
--------------------0---
------------------------
------------------------
------------------------
------------------------
------------------------
------------------------
----------00------------
------------------------
------------------------
------------------------
------------------------
------------------------
------------------------
------------------------
------------------------
------------------------
------------------------
---------------------0--
------------------------
---------------0--------
------------------------
------------------------
------------------------
------------------------
------------------------
------------------------
----------------0-------
----------------0-------
------------------------
------------------------
------------------------
------------------------
------------------------
------------------------
------------------------
------------------------
------------------------
------------------------
------------------------
------------------------
----------------------0-
------------------------
------------------------
------------------------
------------------------
------------------------
------------------------

Generation = 3, Population = 160.
-0110-------------------
0000-0------------------
110-0-0-----------------
00-0-0------------------
--0-0-------------------
---0--------------------
------------------------
------------------------
------------------------
------------------------
------------------------
------------------------
------------------------
------------------------
---------0--------------
--------0-0-------------
-------0-0-0------------
------0-0-0-0-----------
-------0-0-0------------
--------0-0-------------
---------0--------------
------------------------
------------------------
------------------------
------------------------
------------------------
--------------------0---
-------------------0-0--
------------------0-0-0-
-----------------0-0-0-0
------------------0-0-0-
-------------------0-0--
--------------------0---
----------00------------
---------0110-----------
--------000000----------
-------01211210---------
--------000000----------
---------0110-----------
----------00------------
------------------------
------------------------
------------------------
------------------------
---------------------0--
--------------------0-0-
---------------0---0-0-0
--------------0-0-0-0-0-
-------------0-0-0-0-0-0
------------0-0-0-0-0-0-
-------------0-0-0---0--
--------------0-0-------
---------------0--------
----------------0-------
---------------010------
--------------00200-----
-------------0101010----
-------------0101010----
--------------00200-----
---------------010------
----------------0-------
------------------------
------------------------
------------------------
------------------------
------------------------
------------------------
----------------------0-
---------------------0-0
--------------------0-0-
-------------------0-0--
--------------------0-0-
---------------------0-0
----------------------0-
------------------------
------------------------
------------------------

Generation = 6, Population = 135.
-1-2-100----------------
------------------------
---000---0--------------
------------------------
--00---0----------------
------------------------
00---0------------------
------------------------
---0--------------------
------------------------
------------------------
---------0--------------
------------------------
-------0---0------------
------------------------
-----0---0---0----------
------------------------
---0---0---0---0--------
------------------------
-----0---0---0----------
------------------------
-------0---0------------
------------------------
---------0----------0---
------------------------
------------------0---0-
------------------------
----------------0---0---
------------------------
--------------0---0-----
----------00------------
----------------0---0---
--------01--10----------
------------------0---0-
------00--11--00--------
--------------------0---
----01--22--22--10------
------------------------
------00--11--00--------
------------------------
--------01--10----------
---------------------0--
----------00------------
---------------0---0---0
------------------------
-------------0-------0-0
------------------------
-----------0---------0-0
------------------------
---------0---0---------0
----------------0-------
-----------0---01------0
--------------0---0-----
-------------01--10--0--
------------0---2---0---
------------1--02---1---
----------0---1---1---0-
----------0---1---1---0-
------------1---2---1---
------------0---2---0---
--------------0---0-----
--------------0---0-----
----------------1-------
----------------0-------
----------------------0-
------------------------
--------------------0---
------------------------
------------------0-----
------------------------
----------------0-------
------------------------
------------------0-----
------------------------
--------------------0---
------------------------
----------------------0-

*** Life<FredkinCell> 1x1 ***

Generation = 0, Population = 1.
0

Generation = 1, Population = 0.
-

Generation = 2, Population = 0.
-

*** Life<FredkinCell> 3x3 ***

Generation = 0, Population = 3.
0--
---
-00

Generation = 5, Population = 0.
---
---
---

Generation = 10, Population = 0.
---
---
---

Generation = 15, Population = 0.
---
---
---

Generation = 20, Population = 0.
---
---
---

Generation = 25, Population = 0.
---
---
---

Generation = 30, Population = 0.
---
---
---

Generation = 35, Population = 0.
---
---
---

Generation = 40, Population = 0.
---
---
---
