*** Life<FredkinCell> 10x10 ***

Generation = 0, Population = 4.
0---------
--0-------
----------
----------
----0-----
----------
----------
----------
----------
---------0

Generation = 1, Population = 12.
-00-------
00-0------
--0-------
----0-----
---0-0----
----0-----
----------
----------
---------0
--------0-

*** Life<FredkinCell> 3x10 ***

Generation = 0, Population = 6.
---------0
----0--0--
-000------

Generation = 1, Population = 13.
----0--00-
-00--00-00
01-1---0--

Generation = 2, Population = 13.
-000---1--
--1--11--1
1-0-00---0

Generation = 3, Population = 16.
011100--00
0-----2-02
--1-1---01

Generation = 4, Population = 11.
-----1-1--
1--0----13
11---000--

Generation = 5, Population = 18.
0--10----0
2-1-0-2024
-21111-1-1

Generation = 6, Population = 22.
11-2-101-1
302--131-5
-32-220202

Generation = 7, Population = 10.
--1---1--2
-----2-22-
----3313--

Generation = 8, Population = 8.
-1-2------
--2--3--3-
---144----

Generation = 9, Population = 13.
1-1-01--0-
---0-432-5
---2--1-0-

Generation = 10, Population = 12.
---21-----
3--10-43--
--234-23--

Generation = 11, Population = 14.
1-1--111--
-0-21---3-
1334----0-

*** Life<FredkinCell> 1x1 ***

Generation = 0, Population = 1.
0

Generation = 1, Population = 0.
-

*** Life<FredkinCell> 4x4 ***

Generation = 0, Population = 16.
0000
0000
0000
0000

Generation = 4, Population = 8.
-44-
4--4
4--4
-44-

Generation = 8, Population = 8.
-88-
8--8
8--8
-88-

Generation = 12, Population = 8.
-++-
+--+
+--+
-++-

Generation = 16, Population = 8.
-++-
+--+
+--+
-++-

Generation = 20, Population = 8.
-++-
+--+
+--+
-++-

*** Life<FredkinCell> 12x1 ***

Generation = 0, Population = 3.
-
-
0
0
-
-
-
-
-
-
-
0

Generation = 1, Population = 5.
-
0
1
1
0
-
-
-
-
-
0
-

Generation = 2, Population = 6.
0
1
-
-
1
0
-
-
-
0
-
0

*** Life<FredkinCell> 12x12 ***

Generation = 0, Population = 8.
------------
-00---------
-00---------
------------
-----0------
------------
------------
------------
------------
------------
----------0-
00----------

Generation = 3, Population = 46.
-22-0-------
2-----------
2---110-----
---000-0----
0-110-0-0---
-000-0-0----
----0-0-----
-----0----0-
00-------0-0
110-----0-0-
0-00---0-0--
13-10---0---

Generation = 6, Population = 52.
--3-1-00----
--22---10---
3---22-100--
11---11-----
1-11-000--10
-3-10-------
02-100--01--
---0--------
-000--10--0-
---001------
----10--0---
-----200----

*** Life<FredkinCell> 2x2 ***

Generation = 0, Population = 2.
0-
-0

Generation = 1, Population = 0.
--
--

Generation = 2, Population = 0.
--
--

*** Life<FredkinCell> 55x45 ***

Generation = 0, Population = 1.
0--------------------------------------------
---------------------------------------------
---------------------------------------------
---------------------------------------------
---------------------------------------------
---------------------------------------------
---------------------------------------------
---------------------------------------------
---------------------------------------------
---------------------------------------------
---------------------------------------------
---------------------------------------------
---------------------------------------------
---------------------------------------------
---------------------------------------------
---------------------------------------------
---------------------------------------------
---------------------------------------------
---------------------------------------------
---------------------------------------------
---------------------------------------------
---------------------------------------------
---------------------------------------------
---------------------------------------------
---------------------------------------------
---------------------------------------------
---------------------------------------------
---------------------------------------------
---------------------------------------------
---------------------------------------------
---------------------------------------------
---------------------------------------------
---------------------------------------------
---------------------------------------------
---------------------------------------------
---------------------------------------------
---------------------------------------------
---------------------------------------------
---------------------------------------------
---------------------------------------------
---------------------------------------------
---------------------------------------------
---------------------------------------------
---------------------------------------------
---------------------------------------------
---------------------------------------------
---------------------------------------------
---------------------------------------------
---------------------------------------------
---------------------------------------------
---------------------------------------------
---------------------------------------------
---------------------------------------------
---------------------------------------------
---------------------------------------------

Generation = 1, Population = 2.
-0-------------------------------------------
0--------------------------------------------
---------------------------------------------
---------------------------------------------
---------------------------------------------
---------------------------------------------
---------------------------------------------
---------------------------------------------
---------------------------------------------
---------------------------------------------
---------------------------------------------
---------------------------------------------
---------------------------------------------
---------------------------------------------
---------------------------------------------
---------------------------------------------
---------------------------------------------
---------------------------------------------
---------------------------------------------
---------------------------------------------
---------------------------------------------
---------------------------------------------
---------------------------------------------
---------------------------------------------
---------------------------------------------
---------------------------------------------
---------------------------------------------
---------------------------------------------
---------------------------------------------
---------------------------------------------
---------------------------------------------
---------------------------------------------
---------------------------------------------
---------------------------------------------
---------------------------------------------
---------------------------------------------
---------------------------------------------
---------------------------------------------
---------------------------------------------
---------------------------------------------
---------------------------------------------
---------------------------------------------
---------------------------------------------
---------------------------------------------
---------------------------------------------
---------------------------------------------
---------------------------------------------
---------------------------------------------
---------------------------------------------
---------------------------------------------
---------------------------------------------
---------------------------------------------
---------------------------------------------
---------------------------------------------
---------------------------------------------

*** Life<FredkinCell> 7x4 ***

Generation = 0, Population = 4.
----
----
---0
---0
----
--0-
-0--

Generation = 3, Population = 15.
--01
-00-
010-
01-3
-10-
-00-
---1

*** Life<FredkinCell> 7x8 ***

Generation = 0, Population = 6.
--------
--0----0
-0------
--------
-----0--
------0-
-------0

Generation = 3, Population = 18.
--0-00-0
----1---
0---01--
---0--11
0-0---00
-0---0--
----0---

Generation = 6, Population = 14.
--------
-0221---
--------
0-00-1--
-----0-1
-----0-0
-0---0--

Generation = 9, Population = 15.
-0--0-0-
0-22-0--
-0----0-
-0-1-2-1
--0-0---
--------
--------

Generation = 12, Population = 14.
-0-1-2-0
----50--
---1-4-1
--------
-----0-2
-1------
---0---0

*** Life<FredkinCell> 6x6 ***

Generation = 0, Population = 5.
0-----
------
---0--
--0-0-
-----0
------

Generation = 1, Population = 7.
-0----
0--0--
------
-0-0--
--0---
-----0

Generation = 2, Population = 12.
--00--
--0-0-
00----
0-0-0-
-----0
--0-0-

Generation = 3, Population = 13.
-0-1--
0-10-0
-10---
10----
0---0-
-0----

Generation = 4, Population = 13.
--0200
------
0----0
----0-
10-0-0
--0-0-
